[
    {
        "project":"2169A",
        "name":"default",
        "product":"RMX3370",
        "device":"RE879AL1",
        "model":"RMX3370",
        "first_api_level":"30",
        "manufacturer":"realme",
        "brand":"realme",
        "base_oses": [
            {
              "13": "realme/RMX3370/RE879AL1:13/TP1A.220905.001/R.f6f367-1_64ac:user/release-keys"
            }
        ]
    },
    {
        "project":"2169A",
        "name":"ru",
        "product":"RMX3370RU",
        "device":"RE879AL1",
        "model":"RMX3370",
        "first_api_level":"30",
        "manufacturer":"realme",
        "brand":"realme",
        "base_oses": [
            {
              "13": "realme/RMX3370RU/RE879AL1:13/TP1A.220905.001/R.f6f367-1_605c:user/release-keys"
            }
        ]
    },
    {
        "project":"2169A",
        "name":"tr",
        "product":"RMX3370TR",
        "device":"RE879AL1",
        "model":"RMX3370",
        "first_api_level":"30",
        "manufacturer":"realme",
        "brand":"realme",
        "base_oses": [
            {
              "13": "realme/RMX3370TR/RE879AL1:13/TP1A.220905.001/R.f6f367-1_605c:user/release-keys"
            }
        ]
    },
    {
        "project":"2169A",
        "name":"t2",
        "product":"RMX3370T2",
        "device":"RE879AL1",
        "model":"RMX3370",
        "first_api_level":"30",
        "manufacturer":"realme",
        "brand":"realme",
        "base_oses": [
            {
              "13": "realme/RMX3370T2/RE879AL1:13/TP1A.220905.001/R.f6f367-1_605c:user/release-keys"
            }
        ]
    },
    {
        "project":"2169A",
        "name":"eea",
        "product":"RMX3370EEA",
        "device":"RE879AL1",
        "model":"RMX3370",
        "first_api_level":"30",
        "manufacturer":"realme",
        "brand":"realme",
         "base_oses": [
            {
              "13": "realme/RMX3370EEA/RE879AL1:13/TP1A.220905.001/R.f6f367-1_605c:user/release-keys"
            }
        ]
    }
]